# This file uses centimeters as units for non-parametric coordinates.

mtllib EngineLow.mtl
g default
v -4.601294 1.303887 -1.184504
v -4.617280 1.054175 -1.104660
v -4.617195 0.813213 -0.911890
v -4.601010 0.680403 -0.685886
v -4.349808 0.892116 -0.432685
v -4.349879 1.504402 -0.922489
v -4.465169 1.381539 -1.447249
v -4.465588 0.920444 -1.411803
v -4.465605 0.542500 -1.110087
v -4.464861 0.407271 -0.667739
v -4.209902 0.735639 -0.305488
v -4.209828 1.663684 -1.047870
v -4.218792 1.453848 -1.709972
v -4.221304 0.823282 -1.669348
v -4.221866 0.311860 -1.261860
v -4.219153 0.134592 -0.654655
v -3.975902 0.582427 -0.180922
v -3.976152 1.818680 -1.169849
v -3.262250 1.492682 -1.851328
v -3.309148 0.770582 -1.809250
v -3.311056 0.187778 -1.343458
v -3.296338 -0.015473 -0.646701
v -3.090184 0.495080 -0.109938
v -3.065680 1.901528 -1.235031
v 3.262252 1.492682 -1.851329
v 3.309149 0.770582 -1.809250
v 3.311056 0.187777 -1.343458
v 3.296339 -0.015473 -0.646703
v 3.090184 0.495082 -0.109936
v 3.065680 1.901529 -1.235031
v 4.218793 1.453848 -1.709972
v 4.221307 0.823282 -1.669349
v 4.221865 0.311862 -1.261859
v 4.219154 0.134592 -0.654655
v 3.975904 0.582428 -0.180922
v 3.976152 1.818680 -1.169849
v 4.465171 1.381539 -1.447250
v 4.465590 0.920444 -1.411802
v 4.465607 0.542501 -1.110087
v 4.464865 0.407271 -0.667738
v 4.209904 0.735641 -0.305490
v 4.209828 1.663685 -1.047870
v 4.601294 1.303887 -1.184501
v 4.617281 1.054176 -1.104659
v 4.617194 0.813214 -0.911888
v 4.601009 0.680406 -0.685886
v 4.349808 0.892117 -0.432686
v 4.349877 1.504402 -0.922489
v 0.000000 1.500891 -1.878732
v 0.000001 0.761779 -1.832624
v 0.000000 0.167208 -1.356993
v 0.000000 -0.042371 -0.644970
v 0.000000 0.475393 -0.093963
v 0.000000 1.920175 -1.249745
v -4.456805 0.863688 -0.411466
v -4.310815 0.611522 -0.208479
v 3.167362 0.298141 0.044054
v 0.000000 0.277646 0.060519
v -4.072078 0.408178 -0.044605
v -3.167359 0.298143 0.044051
v 4.072079 0.408178 -0.044605
v 4.310815 0.611523 -0.208479
v 4.456804 0.863689 -0.411466
v -4.457425 1.531168 -0.945428
v 3.137270 2.098066 -1.395741
v 0.000000 2.119432 -1.412793
v -4.311203 1.785061 -1.147255
v -3.137270 2.098065 -1.395742
v -4.072367 1.989431 -1.309522
v 4.072370 1.989431 -1.309524
v 4.311205 1.785062 -1.147255
v 4.457424 1.531168 -0.945427
v -4.496882 1.087607 -0.590904
v 4.496882 1.087607 -0.590903
v -4.497094 1.307099 -0.766486
v 4.497094 1.307100 -0.766486
v 4.352556 1.084218 -0.586389
v 4.352580 1.312154 -0.768732
v -4.352555 1.084217 -0.586390
v -4.352580 1.312153 -0.768732
v 0.000000 1.400644 -0.833295
v 3.079694 1.398060 -0.831432
v 0.000000 1.002523 -0.514816
v 3.078206 1.004077 -0.516265
v -3.079693 1.398060 -0.831432
v -3.078206 1.004077 -0.516265
v 3.951686 1.383105 -0.820648
v 3.951514 1.017948 -0.528543
v -3.951684 1.383104 -0.820648
v -3.951514 1.017948 -0.528543
v 4.183900 1.348279 -0.794986
v 4.183799 1.050578 -0.556840
v -4.183898 1.348279 -0.794986
v -4.183798 1.050577 -0.556841
v -4.612330 1.449748 -1.061041
v -4.460143 1.716992 -1.290371
v -4.459095 0.486733 -0.307315
v -4.611289 0.768659 -0.516802
v -4.213136 1.932354 -1.480688
v -4.212731 0.254209 -0.138062
v -3.243155 2.045131 -1.583664
v -3.277602 0.131651 -0.038210
v 3.277602 0.131652 -0.038209
v 0.000000 0.112739 -0.008044
v 3.243156 2.045134 -1.583664
v 4.213138 1.932358 -1.480686
v 4.212729 0.254210 -0.138062
v 4.460144 1.716991 -1.290372
v 4.459098 0.486735 -0.307315
v 4.612330 1.449748 -1.061040
v 4.611290 0.768658 -0.516800
v 0.000000 2.074287 -1.597973
v -4.395383 0.568224 -0.190009
v -4.546408 0.838497 -0.407053
v 3.229040 0.235655 0.081008
v 0.000000 0.215870 0.101396
v -4.152016 0.351428 -0.015070
v -3.229040 0.235654 0.081008
v 4.152018 0.351425 -0.015072
v 4.395383 0.568226 -0.190009
v 4.546409 0.838499 -0.407052
v 3.198996 2.147310 -1.450945
v 0.000000 2.170485 -1.467154
v -4.395963 1.813471 -1.184712
v -4.547114 1.541910 -0.968293
v -3.198996 2.147306 -1.450945
v -4.152439 2.031328 -1.358101
v 4.152441 2.031329 -1.358099
v 4.395965 1.813471 -1.184713
v 4.547114 1.541909 -0.968294
v -4.593842 1.077088 -0.598018
v 4.593843 1.077089 -0.598016
v -4.594084 1.302887 -0.777799
v 4.594085 1.302889 -0.777798
v 4.657252 0.994247 -0.708052
v 4.657683 1.213494 -0.883043
v -4.657683 1.213493 -0.883044
v -4.657254 0.994245 -0.708055
vt 0.127608 0.133924
vt 0.141914 0.118891
vt 0.153008 0.145181
vt 0.131630 0.150148
vt 0.153257 0.174187
vt 0.131864 0.169537
vt 0.142500 0.200661
vt 0.128033 0.185824
vt 0.161823 0.101878
vt 0.172915 0.140709
vt 0.173078 0.178349
vt 0.162315 0.217410
vt 0.225408 0.091738
vt 0.225386 0.136453
vt 0.224550 0.181892
vt 0.220433 0.227116
vt 0.639324 0.087567
vt 0.702970 0.096425
vt 0.692696 0.135401
vt 0.640249 0.132220
vt 0.693311 0.172974
vt 0.642023 0.177577
vt 0.704858 0.211730
vt 0.647093 0.222654
vt 0.723196 0.112970
vt 0.712664 0.139452
vt 0.713019 0.168416
vt 0.724302 0.194631
vt 0.433385 0.181319
vt 0.433880 0.229142
vt 0.737801 0.127673
vt 0.734120 0.143966
vt 0.734301 0.163336
vt 0.738460 0.179527
vt 0.432889 0.132698
vt 0.432411 0.085323
vt 0.120458 0.316734
vt 0.127648 0.327884
vt 0.117387 0.342955
vt 0.109873 0.340594
vt 0.650391 0.279831
vt 0.648659 0.298394
vt 0.434665 0.304519
vt 0.434484 0.287199
vt 0.138116 0.295769
vt 0.145818 0.312283
vt 0.220525 0.302919
vt 0.218387 0.284397
vt 0.730946 0.289498
vt 0.723590 0.306174
vt 0.749046 0.310094
vt 0.742091 0.321393
vt 0.760135 0.333727
vt 0.752673 0.336247
vt 0.659527 0.431296
vt 0.665266 0.449709
vt 0.436232 0.454416
vt 0.436037 0.435834
vt 0.128086 0.414789
vt 0.121178 0.426145
vt 0.110401 0.402712
vt 0.117884 0.400155
vt 0.207152 0.454553
vt 0.212500 0.436023
vt 0.145210 0.429024
vt 0.138507 0.445000
vt 0.726655 0.422881
vt 0.733691 0.438714
vt 0.743476 0.408292
vt 0.750619 0.419500
vt 0.753365 0.393447
vt 0.760902 0.395845
vt 0.763298 0.354524
vt 0.753153 0.354178
vt 0.763520 0.375043
vt 0.753388 0.375560
vt 0.117304 0.360896
vt 0.107165 0.361447
vt 0.117466 0.382271
vt 0.107330 0.381967
vt 0.435536 0.387971
vt 0.658102 0.383862
vt 0.435155 0.351684
vt 0.654708 0.346717
vt 0.212918 0.388573
vt 0.215519 0.351358
vt 0.724475 0.382135
vt 0.723549 0.347805
vt 0.146545 0.388245
vt 0.146725 0.353894
vt 0.741424 0.378899
vt 0.740982 0.350976
vt 0.129518 0.385354
vt 0.129384 0.357444
vt 0.115531 0.130498
vt 0.121976 0.105754
vt 0.122798 0.214020
vt 0.116008 0.189410
vt 0.129047 0.081056
vt 0.130096 0.238642
vt 0.157100 0.064829
vt 0.223541 0.052548
vt 0.214939 0.267972
vt 0.158203 0.254211
vt 0.653473 0.263346
vt 0.434327 0.272066
vt 0.640416 0.048390
vt 0.707008 0.059376
vt 0.709802 0.248349
vt 0.735186 0.074889
vt 0.742821 0.099404
vt 0.744229 0.207611
vt 0.737377 0.232347
vt 0.749799 0.123988
vt 0.750548 0.182877
vt 0.432001 0.044124
vt 0.113383 0.218548
vt 0.107009 0.220296
vt 0.100654 0.193942
vt 0.106846 0.192673
vt 0.652923 0.274117
vt 0.434433 0.282153
vt 0.119301 0.243274
vt 0.112415 0.244979
vt 0.215727 0.278737
vt 0.163574 0.271734
vt 0.160288 0.265618
vt 0.707980 0.259787
vt 0.704836 0.265971
vt 0.753722 0.211964
vt 0.760126 0.213594
vt 0.755156 0.238374
vt 0.748242 0.236790
vt 0.759761 0.185970
vt 0.765976 0.187113
vt 0.634645 0.031941
vt 0.638235 0.037242
vt 0.431896 0.033502
vt 0.431847 0.028565
vt 0.106074 0.099674
vt 0.112478 0.101339
vt 0.106295 0.127346
vt 0.100082 0.126197
vt 0.225503 0.041351
vt 0.228990 0.035977
vt 0.111226 0.074922
vt 0.118144 0.076553
vt 0.159166 0.053093
vt 0.163023 0.046995
vt 0.700762 0.041672
vt 0.704731 0.047692
vt 0.758578 0.092968
vt 0.752215 0.094779
vt 0.745972 0.070132
vt 0.752847 0.068339
vt 0.765157 0.119358
vt 0.758972 0.120647
vt 0.097027 0.171271
vt 0.103757 0.170528
vt 0.762452 0.163742
vt 0.769073 0.164375
vt 0.103582 0.149562
vt 0.096963 0.148909
vt 0.768835 0.142007
vt 0.762109 0.142778
vt 0.752137 0.162793
vt 0.751924 0.144031
vt 0.113812 0.150589
vt 0.114033 0.169359
vn -0.930136 0.051729 -0.363554
vn -0.817382 0.092278 -0.568658
vn -0.838795 -0.202630 -0.505336
vn -0.952704 -0.123420 -0.277709
vn -0.839750 -0.447359 -0.307718
vn -0.952922 -0.243668 -0.180459
vn -0.818033 -0.574210 -0.033256
vn -0.930385 -0.365564 -0.027317
vn -0.327604 0.160787 -0.931033
vn -0.344757 -0.342082 -0.874141
vn -0.345136 -0.776916 -0.526575
vn -0.339123 -0.939644 -0.045448
vn -0.041306 0.176209 -0.983486
vn -0.041295 -0.361048 -0.931633
vn -0.040971 -0.827921 -0.559346
vn -0.041773 -0.998250 -0.041855
vn 0.041306 0.176209 -0.983486
vn 0.327605 0.160790 -0.931033
vn 0.344757 -0.342083 -0.874140
vn 0.041295 -0.361049 -0.931632
vn 0.345137 -0.776917 -0.526574
vn 0.040971 -0.827921 -0.559346
vn 0.339122 -0.939644 -0.045448
vn 0.041773 -0.998250 -0.041854
vn 0.817384 0.092277 -0.568655
vn 0.838797 -0.202629 -0.505333
vn 0.839749 -0.447358 -0.307721
vn 0.818035 -0.574206 -0.033256
vn 0.000000 -0.828045 -0.560662
vn 0.000000 -0.999186 -0.040346
vn 0.930137 0.051730 -0.363550
vn 0.952704 -0.123420 -0.277708
vn 0.952924 -0.243665 -0.180453
vn 0.930387 -0.365558 -0.027322
vn 0.000000 -0.364316 -0.931275
vn -0.000000 0.175990 -0.984392
vn -0.047194 0.602070 0.797047
vn -0.010198 0.623331 0.781892
vn -0.011200 0.624646 0.780828
vn -0.063323 0.609833 0.789996
vn 0.001759 0.593381 0.804920
vn 0.000393 0.621724 0.783236
vn -0.000000 0.621682 0.783270
vn -0.000000 0.601411 0.798939
vn -0.016059 0.591198 0.806367
vn -0.003108 0.622026 0.782990
vn -0.000393 0.621723 0.783237
vn -0.001758 0.593386 0.804916
vn 0.016064 0.591187 0.806374
vn 0.003110 0.622027 0.782990
vn 0.047189 0.602072 0.797046
vn 0.010201 0.623331 0.781892
vn 0.063312 0.609836 0.789995
vn 0.011195 0.624645 0.780829
vn 0.000376 0.627590 0.778544
vn 0.001984 0.659375 0.751812
vn -0.000000 0.655744 0.754983
vn -0.000000 0.627641 0.778503
vn -0.010237 0.625938 0.779806
vn -0.043674 0.643716 0.764017
vn -0.057860 0.635723 0.769746
vn -0.011221 0.624607 0.780859
vn -0.001984 0.659380 0.751807
vn -0.000376 0.627592 0.778542
vn -0.003013 0.627310 0.778764
vn -0.015065 0.655745 0.754832
vn 0.003013 0.627310 0.778764
vn 0.015063 0.655740 0.754836
vn 0.010237 0.625937 0.779807
vn 0.043678 0.643721 0.764013
vn 0.011217 0.624606 0.780859
vn 0.057868 0.635723 0.769745
vn 0.056019 0.620920 0.781870
vn 0.011077 0.624630 0.780842
vn 0.053224 0.626345 0.777727
vn 0.011077 0.624646 0.780829
vn -0.011077 0.624631 0.780841
vn -0.056023 0.620919 0.781870
vn -0.011077 0.624645 0.780830
vn -0.053231 0.626346 0.777726
vn -0.000000 0.625114 0.780533
vn 0.000277 0.625124 0.780525
vn 0.000000 0.624248 0.781226
vn 0.000277 0.624229 0.781241
vn -0.000277 0.625124 0.780525
vn -0.000277 0.624228 0.781243
vn 0.002416 0.625076 0.780560
vn 0.002415 0.624253 0.781219
vn -0.002417 0.625077 0.780560
vn -0.002416 0.624252 0.781219
vn 0.009484 0.624843 0.780693
vn 0.009471 0.624434 0.781020
vn -0.009487 0.624843 0.780693
vn -0.009473 0.624435 0.781020
vn -0.949901 0.298977 -0.091104
vn -0.847370 0.368283 -0.382535
vn -0.847503 -0.453385 0.276007
vn -0.949336 -0.154644 0.273581
vn -0.329926 0.518557 -0.788826
vn -0.340227 -0.879120 0.333758
vn -0.041339 0.524225 -0.850576
vn -0.041842 -0.943268 0.329385
vn 0.041843 -0.943268 0.329385
vn 0.000000 -0.945032 0.326979
vn 0.041338 0.524225 -0.850576
vn 0.329927 0.518559 -0.788825
vn 0.340226 -0.879121 0.333755
vn 0.847371 0.368281 -0.382533
vn 0.847501 -0.453386 0.276014
vn 0.949902 0.298976 -0.091105
vn 0.949338 -0.154642 0.273576
vn -0.000000 0.523655 -0.851930
vn -0.619639 0.122219 0.775313
vn -0.656341 0.299314 0.692552
vn 0.039178 -0.421668 0.905903
vn 0.000000 -0.383911 0.923370
vn -0.293444 -0.285683 0.912292
vn -0.039178 -0.421654 0.905910
vn 0.293445 -0.285689 0.912289
vn 0.619633 0.122222 0.775317
vn 0.656335 0.299316 0.692556
vn 0.038996 0.967332 -0.250496
vn -0.000001 0.971545 -0.236853
vn -0.616185 0.730803 0.293670
vn -0.654246 0.610073 0.446960
vn -0.038996 0.967329 -0.250507
vn -0.284994 0.954840 -0.084019
vn 0.284993 0.954842 -0.084002
vn 0.616192 0.730799 0.293667
vn 0.654247 0.610074 0.446956
vn -0.681616 0.412505 0.604350
vn 0.681616 0.412505 0.604350
vn -0.680490 0.497192 0.538269
vn 0.680490 0.497196 0.538266
vn 0.995126 -0.025313 0.095312
vn 0.995360 0.096187 -0.002551
vn -0.995360 0.096188 -0.002553
vn -0.995125 -0.025310 0.095318
s 1
g BunLow group1
usemtl BunLowSG
f 1/1/1 7/2/2 8/3/3 2/4/4
f 2/4/4 8/3/3 9/5/5 3/6/6
f 3/6/6 9/5/5 10/7/7 4/8/8
f 7/2/2 13/9/9 14/10/10 8/3/3
f 8/3/3 14/10/10 15/11/11 9/5/5
f 9/5/5 15/11/11 16/12/12 10/7/7
f 13/9/9 19/13/13 20/14/14 14/10/10
f 14/10/10 20/14/14 21/15/15 15/11/11
f 15/11/11 21/15/15 22/16/16 16/12/12
f 25/17/17 31/18/18 32/19/19 26/20/20
f 26/20/20 32/19/19 33/21/21 27/22/22
f 27/22/22 33/21/21 34/23/23 28/24/24
f 31/18/18 37/25/25 38/26/26 32/19/19
f 32/19/19 38/26/26 39/27/27 33/21/21
f 33/21/21 39/27/27 40/28/28 34/23/23
f 51/29/29 27/22/22 28/24/24 52/30/30
f 21/15/15 51/29/29 52/30/30 22/16/16
f 37/25/25 43/31/31 44/32/32 38/26/26
f 38/26/26 44/32/32 45/33/33 39/27/27
f 39/27/27 45/33/33 46/34/34 40/28/28
f 50/35/35 26/20/20 27/22/22 51/29/29
f 20/14/14 50/35/35 51/29/29 21/15/15
f 19/13/13 49/36/36 50/35/35 20/14/14
f 49/36/36 25/17/17 26/20/20 50/35/35
f 56/37/37 11/38/38 5/39/39 55/40/40
f 57/41/41 29/42/42 53/43/43 58/44/44
f 59/45/45 17/46/46 11/38/38 56/37/37
f 58/44/44 53/43/43 23/47/47 60/48/48
f 60/48/48 23/47/47 17/46/46 59/45/45
f 61/49/49 35/50/50 29/42/42 57/41/41
f 62/51/51 41/52/52 35/50/50 61/49/49
f 63/53/53 47/54/54 41/52/52 62/51/51
f 30/55/55 65/56/56 66/57/57 54/58/58
f 12/59/59 67/60/60 64/61/61 6/62/62
f 54/58/58 66/57/57 68/63/63 24/64/64
f 18/65/65 69/66/66 67/60/60 12/59/59
f 24/64/64 68/63/63 69/66/66 18/65/65
f 36/67/67 70/68/68 65/56/56 30/55/55
f 42/69/69 71/70/70 70/68/68 36/67/67
f 48/71/71 72/72/72 71/70/70 42/69/69
f 63/53/53 74/73/73 77/74/74 47/54/54
f 76/75/75 72/72/72 48/71/71 78/76/76
f 5/39/39 79/77/77 73/78/78 55/40/40
f 80/79/79 6/62/62 64/61/61 75/80/80
f 54/58/58 81/81/81 82/82/82 30/55/55
f 83/83/83 53/43/43 29/42/42 84/84/84
f 24/64/64 85/85/85 81/81/81 54/58/58
f 86/86/86 23/47/47 53/43/43 83/83/83
f 30/55/55 82/82/82 87/87/87 36/67/67
f 84/84/84 29/42/42 35/50/50 88/88/88
f 18/65/65 89/89/89 85/85/85 24/64/64
f 90/90/90 17/46/46 23/47/47 86/86/86
f 36/67/67 87/87/87 91/91/91 42/69/69
f 88/88/88 35/50/50 41/52/52 92/92/92
f 12/59/59 93/93/93 89/89/89 18/65/65
f 94/94/94 11/38/38 17/46/46 90/90/90
f 42/69/69 91/91/91 78/76/76 48/71/71
f 92/92/92 41/52/52 47/54/54 77/74/74
f 6/62/62 80/79/79 93/93/93 12/59/59
f 79/77/77 5/39/39 11/38/38 94/94/94
f 76/75/75 78/76/76 77/74/74 74/73/73
f 73/78/78 79/77/77 80/79/79 75/80/80
f 83/83/83 84/84/84 82/82/82 81/81/81
f 81/81/81 85/85/85 86/86/86 83/83/83
f 84/84/84 88/88/88 87/87/87 82/82/82
f 85/85/85 89/89/89 90/90/90 86/86/86
f 88/88/88 92/92/92 91/91/91 87/87/87
f 89/89/89 93/93/93 94/94/94 90/90/90
f 78/76/76 91/91/91 92/92/92 77/74/74
f 79/77/77 94/94/94 93/93/93 80/79/79
f 95/95/95 96/96/96 7/2/2 1/1/1
f 4/8/8 10/7/7 97/97/97 98/98/98
f 96/96/96 99/99/99 13/9/9 7/2/2
f 10/7/7 16/12/12 100/100/100 97/97/97
f 99/101/99 101/102/101 19/13/13 13/9/9
f 16/12/12 22/16/16 102/103/102 100/104/100
f 52/30/30 28/24/24 103/105/103 104/106/104
f 105/107/105 106/108/106 31/18/18 25/17/17
f 28/24/24 34/23/23 107/109/107 103/105/103
f 22/16/16 52/30/30 104/106/104 102/103/102
f 106/110/106 108/111/108 37/25/25 31/18/18
f 34/23/23 40/28/28 109/112/109 107/113/107
f 108/111/108 110/114/110 43/31/31 37/25/25
f 40/28/28 46/34/34 111/115/111 109/112/109
f 101/102/101 112/116/112 49/36/36 19/13/13
f 112/116/112 105/107/105 25/17/17 49/36/36
f 113/117/113 56/118/37 55/119/40 114/120/114
f 115/121/115 57/41/41 58/44/44 116/122/116
f 117/123/117 59/124/45 56/118/37 113/117/113
f 116/122/116 58/44/44 60/48/48 118/125/118
f 118/125/118 60/48/48 59/126/45 117/127/117
f 119/128/119 61/129/49 57/41/41 115/121/115
f 120/130/120 62/131/51 61/132/49 119/133/119
f 121/134/121 63/135/53 62/131/51 120/130/120
f 65/136/56 122/137/122 123/138/123 66/139/57
f 67/140/60 124/141/124 125/142/125 64/143/61
f 66/139/57 123/138/123 126/144/126 68/145/63
f 69/146/66 127/147/127 124/141/124 67/140/60
f 68/145/63 126/144/126 127/148/127 69/149/66
f 70/150/68 128/151/128 122/137/122 65/136/56
f 71/152/70 129/153/129 128/154/128 70/155/68
f 72/156/72 130/157/130 129/153/129 71/152/70
f 73/158/78 131/159/131 114/120/114 55/119/40
f 63/135/53 121/134/121 132/160/132 74/161/73
f 64/143/61 125/142/125 133/162/133 75/163/80
f 76/164/75 134/165/134 130/157/130 72/156/72
f 134/165/134 76/164/75 74/161/73 132/160/132
f 131/159/131 73/158/78 75/163/80 133/162/133
f 135/166/135 45/33/33 44/32/32 136/167/136
f 137/168/137 2/4/4 3/6/6 138/169/138
f 136/167/136 44/32/32 43/31/31 110/114/110
f 95/95/95 1/1/1 2/4/4 137/168/137
f 111/115/111 46/34/34 45/33/33 135/166/135
f 138/169/138 3/6/6 4/8/8 98/98/98
f 125/142/125 124/141/124 96/96/96 95/95/95
f 124/141/124 127/147/127 99/99/99 96/96/96
f 127/148/127 126/144/126 101/102/101 99/101/99
f 115/121/115 116/122/116 104/106/104 103/105/103
f 122/137/122 128/151/128 106/108/106 105/107/105
f 128/154/128 129/153/129 108/111/108 106/110/106
f 129/153/129 130/157/130 110/114/110 108/111/108
f 126/144/126 123/138/123 112/116/112 101/102/101
f 98/98/98 97/97/97 113/117/113 114/120/114
f 97/97/97 100/100/100 117/123/117 113/117/113
f 102/103/102 104/106/104 116/122/116 118/125/118
f 100/104/100 102/103/102 118/125/118 117/127/117
f 103/105/103 107/109/107 119/128/119 115/121/115
f 107/113/107 109/112/109 120/130/120 119/133/119
f 109/112/109 111/115/111 121/134/121 120/130/120
f 105/107/105 112/116/112 123/138/123 122/137/122
f 111/115/111 135/166/135 132/160/132 121/134/121
f 95/95/95 137/168/137 133/162/133 125/142/125
f 135/166/135 136/167/136 134/165/134 132/160/132
f 131/159/131 133/162/133 137/168/137 138/169/138
f 130/157/130 134/165/134 136/167/136 110/114/110
f 114/120/114 131/159/131 138/169/138 98/98/98
g default
v -5.113873 2.316233 -0.057697
v -4.964805 2.655391 -0.057674
v -4.981457 2.587689 -0.272204
v -5.025106 2.410495 -0.404792
v -5.079085 2.191471 -0.404803
v -5.122776 2.014267 -0.272222
v -5.139487 1.946571 -0.057676
v -5.122834 2.014257 0.156889
v -5.079184 2.191481 0.289501
v -5.025201 2.410534 0.289495
v -4.981512 2.587732 0.156876
v -4.711842 2.896573 -0.057674
v -4.741957 2.774083 -0.445318
v -4.820832 2.453906 -0.684902
v -4.918393 2.058101 -0.685066
v -4.997399 1.737677 -0.445554
v -5.027625 1.615169 -0.057674
v -4.997494 1.737538 0.330322
v -4.918563 2.057998 0.570157
v -4.820960 2.454116 0.570089
v -4.741998 2.774425 0.330205
v -4.372091 3.051828 -0.057673
v -4.412864 2.886304 -0.581658
v -4.519575 2.453530 -0.905522
v -4.651461 1.918529 -0.905628
v -4.758214 1.485516 -0.581861
v -4.799186 1.319674 -0.057674
v -4.758718 1.484563 0.467273
v -4.651817 1.918198 0.791535
v -4.519670 2.453816 0.790958
v -4.412862 2.886694 0.466587
v -3.879765 3.055873 -0.057673
v -3.923733 2.866894 -0.655390
v -4.036862 2.371595 -1.024793
v -4.175462 1.759142 -1.024660
v -4.287444 1.263746 -0.655267
v -4.330349 1.074496 -0.057672
v -4.287619 1.263709 0.539974
v -4.175637 1.759152 0.909416
v -4.036867 2.371597 0.909449
v -3.923656 2.866817 0.540004
v 3.879766 3.055874 -0.057675
v 3.923730 2.866893 -0.655386
v 4.036861 2.371598 -1.024793
v 4.175460 1.759145 -1.024658
v 4.287442 1.263747 -0.655264
v 4.330348 1.074497 -0.057671
v 4.287619 1.263713 0.539977
v 4.175643 1.759150 0.909419
v 4.036869 2.371598 0.909451
v 3.923658 2.866820 0.540003
v 4.372091 3.051828 -0.057674
v 4.412866 2.886305 -0.581659
v 4.519577 2.453531 -0.905522
v 4.651463 1.918528 -0.905629
v 4.758215 1.485514 -0.581861
v 4.799187 1.319672 -0.057673
v 4.758716 1.484564 0.467270
v 4.651822 1.918198 0.791537
v 4.519669 2.453818 0.790955
v 4.412862 2.886692 0.466585
v 4.711846 2.896573 -0.057674
v 4.741960 2.774086 -0.445319
v 4.820839 2.453905 -0.684900
v 4.918396 2.058103 -0.685067
v 4.997399 1.737678 -0.445556
v 5.027626 1.615170 -0.057675
v 4.997493 1.737539 0.330323
v 4.918565 2.057999 0.570154
v 4.820961 2.454117 0.570091
v 4.742003 2.774424 0.330204
v 4.964805 2.655392 -0.057674
v 4.981458 2.587689 -0.272199
v 5.025105 2.410499 -0.404791
v 5.079083 2.191471 -0.404805
v 5.122778 2.014266 -0.272218
v 5.139492 1.946575 -0.057672
v 5.122831 2.014253 0.156893
v 5.079182 2.191482 0.289505
v 5.025198 2.410534 0.289496
v 4.981513 2.587730 0.156875
v 5.113873 2.316233 -0.057697
v -2.775128 2.830378 -0.057673
v -2.807823 2.635550 -0.668203
v 2.775130 2.830379 -0.057674
v 2.807825 2.635550 -0.668202
v -2.885836 2.123375 -1.045666
v 2.885836 2.123375 -1.045666
v -2.978387 1.489286 -1.045725
v 2.978388 1.489285 -1.045726
v -3.052599 0.976263 -0.668306
v 3.052599 0.976263 -0.668304
v -3.080894 0.780346 -0.057674
v 3.080897 0.780344 -0.057674
v -3.052600 0.976262 0.552960
v 3.052604 0.976261 0.552958
v -2.978384 1.489286 0.930379
v 2.978386 1.489287 0.930378
v -2.885835 2.123375 0.930319
v 2.885834 2.123377 0.930318
v -2.807823 2.635550 0.552856
v 2.807823 2.635551 0.552853
v 0.945212 2.606993 -0.057674
v 0.961511 2.411318 -0.668255
v -0.961510 2.411318 -0.668254
v -0.945212 2.606992 -0.057674
v 1.002266 1.898234 -1.045881
v -1.002266 1.898234 -1.045882
v 1.051647 1.263523 -1.045977
v -1.051646 1.263522 -1.045978
v 1.091402 0.750077 -0.668418
v -1.091401 0.750079 -0.668417
v 1.106568 0.554036 -0.057674
v -1.106567 0.554035 -0.057674
v 1.091402 0.750077 0.553069
v -1.091402 0.750077 0.553070
v 1.051646 1.263523 0.930631
v -1.051646 1.263523 0.930630
v 1.002266 1.898234 0.930534
v -1.002267 1.898234 0.930535
v 0.961511 2.411319 0.552908
v -0.961511 2.411318 0.552907
vt 0.821797 0.869298
vt 0.798512 0.875556
vt 0.799719 0.860233
vt 0.807030 0.846548
vt 0.818987 0.837753
vt 0.040925 0.595596
vt 0.046431 0.564869
vt 0.057181 0.573984
vt 0.063493 0.587757
vt 0.063712 0.603145
vt 0.057936 0.617133
vt 0.046875 0.626579
vt 0.814216 0.899927
vt 0.803881 0.889995
vt 0.775379 0.878869
vt 0.776940 0.853992
vt 0.788038 0.830616
vt 0.806360 0.811371
vt 0.061484 0.541398
vt 0.077234 0.560679
vt 0.086206 0.582747
vt 0.086518 0.606514
vt 0.078178 0.630753
vt 0.062354 0.651104
vt 0.798855 0.924146
vt 0.783218 0.903236
vt 0.751454 0.880651
vt 0.753489 0.849202
vt 0.765266 0.818052
vt 0.785386 0.787837
vt 0.084414 0.521947
vt 0.100279 0.550817
vt 0.110841 0.579641
vt 0.111234 0.610267
vt 0.101058 0.642260
vt 0.084729 0.672272
vt 0.776185 0.945072
vt 0.759188 0.912809
vt 0.721551 0.882354
vt 0.723625 0.844602
vt 0.733437 0.806436
vt 0.748294 0.766574
vt 0.122747 0.505970
vt 0.134206 0.542674
vt 0.142572 0.577607
vt 0.143049 0.614605
vt 0.134732 0.651818
vt 0.122252 0.689985
vt 0.738934 0.961773
vt 0.727416 0.921120
vt 0.155570 0.882414
vt 0.125604 0.880796
vt 0.123746 0.849345
vt 0.153525 0.844661
vt 0.111975 0.818187
vt 0.143704 0.806454
vt 0.091400 0.787831
vt 0.128741 0.766556
vt 0.754150 0.505950
vt 0.792283 0.521914
vt 0.776817 0.550711
vt 0.742765 0.542586
vt 0.766234 0.579487
vt 0.734490 0.577459
vt 0.765840 0.610193
vt 0.734043 0.614479
vt 0.776026 0.642233
vt 0.742533 0.651748
vt 0.792753 0.672366
vt 0.755027 0.689979
vt 0.138292 0.961742
vt 0.101281 0.945021
vt 0.117847 0.912937
vt 0.149720 0.921139
vt 0.101847 0.878652
vt 0.100047 0.853780
vt 0.089088 0.830546
vt 0.070988 0.811659
vt 0.815505 0.540950
vt 0.800064 0.560767
vt 0.791111 0.583053
vt 0.790555 0.606821
vt 0.798857 0.630985
vt 0.814811 0.650978
vt 0.078120 0.924438
vt 0.093941 0.903157
vt 0.078472 0.875349
vt 0.077537 0.859970
vt 0.070278 0.846389
vt 0.058696 0.837854
vt 0.831467 0.564657
vt 0.820270 0.574098
vt 0.813765 0.587747
vt 0.813365 0.603257
vt 0.819028 0.617301
vt 0.829681 0.626622
vt 0.062389 0.900084
vt 0.073078 0.889835
vt 0.055328 0.869311
vt 0.836342 0.595795
vt 0.646692 0.883412
vt 0.648137 0.838418
vt 0.230451 0.883411
vt 0.228997 0.838419
vt 0.651942 0.793147
vt 0.225180 0.793140
vt 0.656505 0.747795
vt 0.220618 0.747779
vt 0.213330 0.491460
vt 0.217992 0.534853
vt 0.663782 0.491474
vt 0.659138 0.534842
vt 0.220578 0.577418
vt 0.656559 0.577396
vt 0.220495 0.618770
vt 0.656626 0.618752
vt 0.217609 0.661328
vt 0.659531 0.661325
vt 0.212726 0.705281
vt 0.664429 0.705297
vt 0.651875 0.974420
vt 0.648696 0.928975
vt 0.225283 0.974398
vt 0.228455 0.928963
vt 0.366738 0.883387
vt 0.366063 0.835717
vt 0.511071 0.835735
vt 0.510402 0.883418
vt 0.364454 0.788770
vt 0.512674 0.788757
vt 0.362623 0.743120
vt 0.514501 0.743066
vt 0.518261 0.484569
vt 0.518234 0.531653
vt 0.358907 0.531681
vt 0.358886 0.484519
vt 0.518187 0.576942
vt 0.358952 0.576987
vt 0.517868 0.621017
vt 0.359266 0.621053
vt 0.517355 0.665355
vt 0.359774 0.665351
vt 0.517057 0.711553
vt 0.360061 0.711462
vt 0.364827 0.977451
vt 0.366168 0.930974
vt 0.510977 0.930991
vt 0.512320 0.977418
vn -0.970950 0.239281 -0.000142
vn -0.822022 0.569456 -0.000163
vn -0.838217 0.503456 -0.209582
vn -0.880830 0.330486 -0.338996
vn -0.933550 0.116727 -0.338910
vn -0.976207 -0.056113 -0.209453
vn -0.992517 -0.122104 -0.000137
vn -0.976273 -0.056098 0.209149
vn -0.933699 0.116776 0.338481
vn -0.881033 0.330459 0.338493
vn -0.838378 0.503359 0.209168
vn -0.555956 0.831212 -0.000396
vn -0.586637 0.706177 -0.396448
vn -0.667284 0.379108 -0.641100
vn -0.766991 -0.025182 -0.641163
vn -0.847762 -0.352390 -0.396384
vn -0.878862 -0.477076 -0.000193
vn -0.848547 -0.351605 0.395401
vn -0.767899 -0.024994 0.640083
vn -0.667830 0.379118 0.640526
vn -0.586909 0.706313 0.395803
vn -0.188033 0.982163 -0.000365
vn -0.229445 0.813609 -0.534224
vn -0.335968 0.372433 -0.865112
vn -0.466656 -0.174840 -0.866985
vn -0.572284 -0.619557 -0.537252
vn -0.612773 -0.790259 -0.001012
vn -0.572384 -0.620176 0.536431
vn -0.466268 -0.174620 0.867238
vn -0.335198 0.372984 0.865173
vn -0.228771 0.814041 0.533854
vn 0.137356 0.990522 0.000055
vn 0.094276 0.805409 -0.585174
vn -0.016681 0.319608 -0.947403
vn -0.151615 -0.281728 -0.947440
vn -0.259045 -0.768234 -0.585417
vn -0.299470 -0.954106 -0.000073
vn -0.258354 -0.768488 0.585388
vn -0.150856 -0.281851 0.947524
vn -0.016163 0.319640 0.947401
vn 0.094564 0.805365 0.585188
vn -0.137355 0.990522 0.000053
vn 0.188035 0.982162 -0.000362
vn 0.229437 0.813611 -0.534225
vn -0.094276 0.805409 -0.585174
vn 0.335968 0.372432 -0.865113
vn 0.016681 0.319610 -0.947402
vn 0.466650 -0.174841 -0.866988
vn 0.151616 -0.281730 -0.947439
vn 0.572281 -0.619560 -0.537253
vn 0.259044 -0.768233 -0.585419
vn 0.612772 -0.790259 -0.001008
vn 0.299470 -0.954106 -0.000072
vn 0.572384 -0.620177 0.536430
vn 0.258357 -0.768490 0.585384
vn 0.466276 -0.174618 0.867234
vn 0.150854 -0.281851 0.947525
vn 0.335198 0.372989 0.865172
vn 0.016164 0.319642 0.947400
vn 0.228774 0.814041 0.533853
vn -0.094563 0.805366 0.585187
vn 0.555955 0.831212 -0.000393
vn 0.586641 0.706176 -0.396445
vn 0.667285 0.379109 -0.641098
vn 0.766994 -0.025185 -0.641160
vn 0.847764 -0.352390 -0.396381
vn 0.878862 -0.477076 -0.000193
vn 0.848544 -0.351609 0.395403
vn 0.767902 -0.024995 0.640080
vn 0.667830 0.379116 0.640527
vn 0.586908 0.706313 0.395804
vn 0.822024 0.569453 -0.000158
vn 0.838219 0.503454 -0.209577
vn 0.880833 0.330482 -0.338990
vn 0.933550 0.116732 -0.338907
vn 0.976206 -0.056107 -0.209463
vn 0.992517 -0.122103 -0.000125
vn 0.976271 -0.056092 0.209160
vn 0.933700 0.116776 0.338479
vn 0.881034 0.330460 0.338490
vn 0.838382 0.503354 0.209169
vn 0.970950 0.239283 -0.000139
vn 0.151205 0.988502 -0.000000
vn 0.120619 0.800846 -0.586597
vn -0.151205 0.988502 -0.000001
vn -0.120618 0.800846 -0.586598
vn 0.041282 0.307007 -0.950811
vn -0.041283 0.307008 -0.950811
vn -0.054851 -0.304816 -0.950830
vn 0.054851 -0.304818 -0.950830
vn -0.130834 -0.799028 -0.586887
vn 0.130836 -0.799028 -0.586887
vn -0.159380 -0.987217 -0.000001
vn 0.159381 -0.987217 -0.000002
vn -0.130809 -0.799032 0.586887
vn 0.130809 -0.799031 0.586888
vn -0.054817 -0.304820 0.950831
vn 0.054816 -0.304820 0.950831
vn 0.041283 0.307008 0.950811
vn -0.041284 0.307009 0.950811
vn 0.120594 0.800850 0.586597
vn -0.120594 0.800850 0.586597
vn -0.059937 0.998202 -0.000001
vn -0.048198 0.810341 -0.583973
vn 0.048198 0.810341 -0.583973
vn 0.059936 0.998202 -0.000000
vn -0.017971 0.311269 -0.950152
vn 0.017972 0.311271 -0.950151
vn 0.017484 -0.311039 -0.950236
vn -0.017484 -0.311040 -0.950236
vn 0.044248 -0.810387 -0.584222
vn -0.044248 -0.810387 -0.584222
vn 0.053966 -0.998543 -0.000000
vn -0.053966 -0.998543 -0.000002
vn 0.044248 -0.810387 0.584222
vn -0.044247 -0.810387 0.584222
vn 0.017484 -0.311040 0.950236
vn -0.017484 -0.311040 0.950236
vn -0.017971 0.311270 0.950152
vn 0.017972 0.311270 0.950152
vn -0.048198 0.810341 0.583973
vn 0.048198 0.810341 0.583972
s 1
g group1 DogLow
usemtl DogLowSG
f 139/170/139 140/171/140 141/172/141
f 139/170/139 141/172/141 142/173/142
f 139/170/139 142/173/142 143/174/143
f 139/175/139 143/176/143 144/177/144
f 139/175/139 144/177/144 145/178/145
f 139/175/139 145/178/145 146/179/146
f 139/175/139 146/179/146 147/180/147
f 139/175/139 147/180/147 148/181/148
f 139/170/139 148/182/148 149/183/149
f 139/170/139 149/183/149 140/171/140
f 140/171/140 150/184/150 151/185/151 141/172/141
f 141/172/141 151/185/151 152/186/152 142/173/142
f 142/173/142 152/186/152 153/187/153 143/174/143
f 143/176/143 153/188/153 154/189/154 144/177/144
f 144/177/144 154/189/154 155/190/155 145/178/145
f 145/178/145 155/190/155 156/191/156 146/179/146
f 146/179/146 156/191/156 157/192/157 147/180/147
f 147/180/147 157/192/157 158/193/158 148/181/148
f 148/182/148 158/194/158 159/195/159 149/183/149
f 149/183/149 159/195/159 150/184/150 140/171/140
f 150/184/150 160/196/160 161/197/161 151/185/151
f 151/185/151 161/197/161 162/198/162 152/186/152
f 152/186/152 162/198/162 163/199/163 153/187/153
f 153/188/153 163/200/163 164/201/164 154/189/154
f 154/189/154 164/201/164 165/202/165 155/190/155
f 155/190/155 165/202/165 166/203/166 156/191/156
f 156/191/156 166/203/166 167/204/167 157/192/157
f 157/192/157 167/204/167 168/205/168 158/193/158
f 158/194/158 168/206/168 169/207/169 159/195/159
f 159/195/159 169/207/169 160/196/160 150/184/150
f 160/196/160 170/208/170 171/209/171 161/197/161
f 161/197/161 171/209/171 172/210/172 162/198/162
f 162/198/162 172/210/172 173/211/173 163/199/163
f 163/200/163 173/212/173 174/213/174 164/201/164
f 164/201/164 174/213/174 175/214/175 165/202/165
f 165/202/165 175/214/175 176/215/176 166/203/166
f 166/203/166 176/215/176 177/216/177 167/204/167
f 167/204/167 177/216/177 178/217/178 168/205/168
f 168/206/168 178/218/178 179/219/179 169/207/169
f 169/207/169 179/219/179 170/208/170 160/196/160
f 180/220/180 190/221/181 191/222/182 181/223/183
f 181/223/183 191/222/182 192/224/184 182/225/185
f 182/225/185 192/224/184 193/226/186 183/227/187
f 183/228/187 193/229/186 194/230/188 184/231/189
f 184/231/189 194/230/188 195/232/190 185/233/191
f 185/233/191 195/232/190 196/234/192 186/235/193
f 186/235/193 196/234/192 197/236/194 187/237/195
f 187/237/195 197/236/194 198/238/196 188/239/197
f 188/240/197 198/241/196 199/242/198 189/243/199
f 189/243/199 199/242/198 190/221/181 180/220/180
f 190/221/181 200/244/200 201/245/201 191/222/182
f 191/222/182 201/245/201 202/246/202 192/224/184
f 192/224/184 202/246/202 203/247/203 193/226/186
f 193/229/186 203/248/203 204/249/204 194/230/188
f 194/230/188 204/249/204 205/250/205 195/232/190
f 195/232/190 205/250/205 206/251/206 196/234/192
f 196/234/192 206/251/206 207/252/207 197/236/194
f 197/236/194 207/252/207 208/253/208 198/238/196
f 198/241/196 208/254/208 209/255/209 199/242/198
f 199/242/198 209/255/209 200/244/200 190/221/181
f 200/244/200 210/256/210 211/257/211 201/245/201
f 201/245/201 211/257/211 212/258/212 202/246/202
f 202/246/202 212/258/212 213/259/213 203/247/203
f 203/248/203 213/260/213 214/261/214 204/249/204
f 204/249/204 214/261/214 215/262/215 205/250/205
f 205/250/205 215/262/215 216/263/216 206/251/206
f 206/251/206 216/263/216 217/264/217 207/252/207
f 207/252/207 217/264/217 218/265/218 208/253/208
f 208/254/208 218/266/218 219/267/219 209/255/209
f 209/255/209 219/267/219 210/256/210 200/244/200
f 210/256/210 220/268/220 211/257/211
f 211/257/211 220/268/220 212/258/212
f 212/258/212 220/268/220 213/259/213
f 213/260/213 220/269/220 214/261/214
f 214/261/214 220/269/220 215/262/215
f 215/262/215 220/269/220 216/263/216
f 216/263/216 220/269/220 217/264/217
f 217/264/217 220/269/220 218/265/218
f 218/266/218 220/268/220 219/267/219
f 219/267/219 220/268/220 210/256/210
f 170/208/170 221/270/221 222/271/222 171/209/171
f 223/272/223 180/220/180 181/223/183 224/273/224
f 171/209/171 222/271/222 225/274/225 172/210/172
f 224/273/224 181/223/183 182/225/185 226/275/226
f 172/210/172 225/274/225 227/276/227 173/211/173
f 226/275/226 182/225/185 183/227/187 228/277/228
f 173/212/173 227/278/227 229/279/229 174/213/174
f 228/280/228 183/228/187 184/231/189 230/281/230
f 174/213/174 229/279/229 231/282/231 175/214/175
f 230/281/230 184/231/189 185/233/191 232/283/232
f 175/214/175 231/282/231 233/284/233 176/215/176
f 232/283/232 185/233/191 186/235/193 234/285/234
f 176/215/176 233/284/233 235/286/235 177/216/177
f 234/285/234 186/235/193 187/237/195 236/287/236
f 177/216/177 235/286/235 237/288/237 178/217/178
f 236/287/236 187/237/195 188/239/197 238/289/238
f 178/218/178 237/290/237 239/291/239 179/219/179
f 238/292/238 188/240/197 189/243/199 240/293/240
f 179/219/179 239/291/239 221/270/221 170/208/170
f 240/293/240 189/243/199 180/220/180 223/272/223
f 241/294/241 242/295/242 243/296/243 244/297/244
f 242/295/242 245/298/245 246/299/246 243/296/243
f 245/298/245 247/300/247 248/301/248 246/299/246
f 247/302/247 249/303/249 250/304/250 248/305/248
f 249/303/249 251/306/251 252/307/252 250/304/250
f 251/306/251 253/308/253 254/309/254 252/307/252
f 253/308/253 255/310/255 256/311/256 254/309/254
f 255/310/255 257/312/257 258/313/258 256/311/256
f 257/314/257 259/315/259 260/316/260 258/317/258
f 244/297/244 260/316/260 259/315/259 241/294/241
f 244/297/244 243/296/243 222/271/222 221/270/221
f 243/296/243 246/299/246 225/274/225 222/271/222
f 246/299/246 248/301/248 227/276/227 225/274/225
f 248/305/248 250/304/250 229/279/229 227/278/227
f 250/304/250 252/307/252 231/282/231 229/279/229
f 252/307/252 254/309/254 233/284/233 231/282/231
f 254/309/254 256/311/256 235/286/235 233/284/233
f 256/311/256 258/313/258 237/288/237 235/286/235
f 258/317/258 260/316/260 239/291/239 237/290/237
f 241/294/241 259/315/259 240/293/240 223/272/223
f 223/272/223 224/273/224 242/295/242 241/294/241
f 224/273/224 226/275/226 245/298/245 242/295/242
f 226/275/226 228/277/228 247/300/247 245/298/245
f 228/280/228 230/281/230 249/303/249 247/302/247
f 230/281/230 232/283/232 251/306/251 249/303/249
f 232/283/232 234/285/234 253/308/253 251/306/251
f 234/285/234 236/287/236 255/310/255 253/308/253
f 236/287/236 238/289/238 257/312/257 255/310/255
f 238/292/238 240/293/240 259/315/259 257/314/257
f 221/270/221 239/291/239 260/316/260 244/297/244
