# This file uses centimeters as units for non-parametric coordinates.

mtllib LOW_Plate.mtl
g default
v -0.000000 -0.000001 -0.243065
v 0.000000 0.674961 -0.206955
v -0.243782 0.629391 -0.206955
v -0.291062 0.751751 -0.147842
v -0.000000 0.806159 -0.147843
v -0.454640 0.498834 -0.206955
v -0.542816 0.595873 -0.147837
v -0.604098 0.300922 -0.206955
v -0.721261 0.359578 -0.147830
v -0.671970 0.062384 -0.206955
v -0.802298 0.074776 -0.147822
v -0.649089 -0.184565 -0.206955
v -0.774980 -0.220068 -0.147813
v -0.538544 -0.406573 -0.206955
v -0.642995 -0.485135 -0.147805
v -0.355264 -0.573655 -0.206955
v -0.424169 -0.684624 -0.147799
v -0.124004 -0.663247 -0.206955
v -0.148055 -0.791593 -0.147796
v 0.124004 -0.663247 -0.206955
v 0.148056 -0.791593 -0.147796
v 0.355264 -0.573655 -0.206955
v 0.424169 -0.684624 -0.147799
v 0.538544 -0.406573 -0.206955
v 0.642995 -0.485135 -0.147805
v 0.649089 -0.184565 -0.206955
v 0.774979 -0.220068 -0.147813
v 0.671970 0.062384 -0.206955
v 0.802298 0.074776 -0.147822
v 0.604098 0.300922 -0.206955
v 0.721261 0.359578 -0.147830
v 0.454640 0.498834 -0.206955
v 0.542816 0.595873 -0.147837
v 0.243782 0.629391 -0.206955
v 0.291063 0.751751 -0.147842
v 0.000000 0.000000 -0.291073
v -0.300426 0.775918 -0.169800
v 0.000000 0.832078 -0.169800
v -0.560276 0.615023 -0.169801
v -0.744455 0.371124 -0.169803
v -0.828089 0.077163 -0.169804
v -0.799884 -0.227157 -0.169806
v -0.663652 -0.500737 -0.169808
v -0.437792 -0.706631 -0.169809
v -0.152809 -0.817032 -0.169810
v 0.152810 -0.817032 -0.169810
v 0.437793 -0.706630 -0.169809
v 0.663652 -0.500738 -0.169808
v 0.799884 -0.227157 -0.169806
v 0.828089 0.077164 -0.169804
v 0.744455 0.371124 -0.169803
v 0.560276 0.615023 -0.169801
v 0.300426 0.775918 -0.169800
v 0.345111 0.890705 -0.042929
v 0.000000 0.955217 -0.042929
v 0.643613 0.705882 -0.042929
v 0.855193 0.425707 -0.042929
v 0.951276 0.088021 -0.042929
v 0.918884 -0.261573 -0.042929
v 0.762390 -0.575858 -0.042929
v 0.502931 -0.812389 -0.042929
v 0.175547 -0.939219 -0.042929
v -0.175546 -0.939220 -0.042929
v -0.502931 -0.812389 -0.042929
v -0.762390 -0.575858 -0.042929
v -0.918884 -0.261573 -0.042929
v -0.951275 0.088020 -0.042929
v -0.855192 0.425707 -0.042929
v -0.643613 0.705882 -0.042929
v -0.345111 0.890705 -0.042929
v 0.000000 0.892112 -0.093131
v -0.322227 0.831877 -0.093132
v -0.600935 0.659308 -0.093132
v -0.798482 0.397712 -0.093133
v -0.888191 0.082417 -0.093134
v -0.857945 -0.243991 -0.093136
v -0.711828 -0.537432 -0.093137
v -0.469575 -0.758274 -0.093137
v -0.163903 -0.876692 -0.093138
v 0.163904 -0.876692 -0.093138
v 0.469575 -0.758274 -0.093137
v 0.711828 -0.537433 -0.093137
v 0.857944 -0.243992 -0.093136
v 0.888191 0.082418 -0.093134
v 0.798482 0.397712 -0.093133
v 0.600934 0.659309 -0.093132
v 0.322227 0.831877 -0.093132
v 0.337867 0.872068 -0.000073
v 0.382072 0.985497 0.000074
v -0.000000 1.056916 0.000074
v 0.000000 0.935229 -0.000073
v 0.630096 0.691116 -0.000073
v 0.712548 0.780885 0.000074
v 0.837219 0.416819 -0.000073
v 0.946800 0.470706 0.000074
v 0.931264 0.086229 -0.000072
v 1.053189 0.096848 0.000074
v 0.899536 -0.256006 -0.000072
v 1.017339 -0.290202 0.000075
v 0.746324 -0.563663 -0.000072
v 0.844087 -0.638169 0.000075
v 0.492325 -0.795198 -0.000071
v 0.556829 -0.900055 0.000075
v 0.171844 -0.919347 -0.000071
v 0.194361 -1.040482 0.000075
v -0.171844 -0.919347 -0.000071
v -0.194361 -1.040482 0.000075
v -0.492325 -0.795198 -0.000071
v -0.556829 -0.900055 0.000075
v -0.746323 -0.563663 -0.000072
v -0.844087 -0.638170 0.000075
v -0.899536 -0.256006 -0.000072
v -1.017339 -0.290202 0.000075
v -0.931264 0.086228 -0.000072
v -1.053189 0.096848 0.000074
v -0.837219 0.416819 -0.000073
v -0.946800 0.470706 0.000074
v -0.630097 0.691116 -0.000073
v -0.712549 0.780885 0.000074
v -0.337867 0.872068 -0.000073
v -0.382072 0.985497 0.000074
v -0.000000 0.870264 -0.071061
v -0.314370 0.811498 -0.071061
v -0.586282 0.643138 -0.071061
v -0.779014 0.387920 -0.071060
v -0.866536 0.080314 -0.071060
v -0.837028 -0.238137 -0.071059
v -0.694474 -0.524425 -0.071059
v -0.458128 -0.739884 -0.071059
v -0.159908 -0.855416 -0.071058
v 0.159909 -0.855416 -0.071059
v 0.458128 -0.739884 -0.071059
v 0.694474 -0.524425 -0.071059
v 0.837028 -0.238137 -0.071059
v 0.866536 0.080314 -0.071060
v 0.779014 0.387920 -0.071060
v 0.586282 0.643138 -0.071061
v 0.314369 0.811499 -0.071061
v 0.000000 0.879060 -0.051496
v 0.317553 0.819698 -0.051496
v 0.331058 0.854556 -0.008381
v 0.000000 0.916442 -0.008381
v -0.331058 0.854556 -0.008381
v -0.317553 0.819698 -0.051496
v -0.617404 0.677258 -0.008381
v -0.592218 0.649632 -0.051496
v -0.820366 0.408491 -0.008381
v -0.786901 0.391830 -0.051496
v -0.912533 0.084556 -0.008382
v -0.875309 0.081110 -0.051496
v -0.881457 -0.250799 -0.008381
v -0.845501 -0.240566 -0.051496
v -0.731336 -0.552281 -0.008381
v -0.701505 -0.529751 -0.051496
v -0.482443 -0.779175 -0.008381
v -0.462765 -0.747391 -0.051496
v -0.168395 -0.900838 -0.008381
v -0.161526 -0.864091 -0.051496
v 0.168395 -0.900838 -0.008381
v 0.161527 -0.864091 -0.051496
v 0.482444 -0.779175 -0.008381
v 0.462765 -0.747391 -0.051496
v 0.731336 -0.552281 -0.008381
v 0.701505 -0.529751 -0.051496
v 0.881457 -0.250798 -0.008382
v 0.845501 -0.240565 -0.051496
v 0.912533 0.084557 -0.008381
v 0.875309 0.081110 -0.051496
v 0.820366 0.408491 -0.008381
v 0.786901 0.391831 -0.051496
v 0.617404 0.677258 -0.008381
v 0.592218 0.649633 -0.051496
v -0.000000 1.072086 -0.009159
v 0.387575 0.999636 -0.009159
v 0.389505 1.004617 -0.026936
v -0.000001 1.077429 -0.026936
v 0.722805 0.792070 -0.009159
v 0.726405 0.796017 -0.026936
v 0.960417 0.477423 -0.009159
v 0.965200 0.479802 -0.026936
v 1.068321 0.098184 -0.009159
v 1.073640 0.098678 -0.026936
v 1.031941 -0.294421 -0.009159
v 1.037079 -0.295886 -0.026936
v 0.856191 -0.647375 -0.009159
v 0.860455 -0.650594 -0.026936
v 0.564809 -0.913006 -0.009159
v 0.567622 -0.917548 -0.026936
v 0.197145 -1.055440 -0.009159
v 0.198125 -1.060693 -0.026936
v -0.197144 -1.055441 -0.009159
v -0.198125 -1.060693 -0.026936
v -0.564808 -0.913007 -0.009159
v -0.567620 -0.917549 -0.026936
v -0.856191 -0.647376 -0.009159
v -0.860455 -0.650594 -0.026936
v -1.031941 -0.294422 -0.009159
v -1.037079 -0.295886 -0.026936
v -1.068320 0.098184 -0.009159
v -1.073640 0.098679 -0.026936
v -0.960418 0.477420 -0.009159
v -0.965200 0.479802 -0.026936
v -0.722806 0.792070 -0.009159
v -0.726405 0.796018 -0.026936
v -0.387575 0.999636 -0.009159
v -0.389504 1.004617 -0.026936
v -0.000000 1.067261 -0.036196
v 0.385808 0.995144 -0.036196
v 0.719516 0.788532 -0.036197
v 0.956059 0.475321 -0.036197
v 1.063489 0.097807 -0.036198
v 1.027289 -0.293028 -0.036199
v 0.852343 -0.644400 -0.036200
v 0.562276 -0.908847 -0.036201
v 0.196262 -1.050648 -0.036201
v -0.196262 -1.050648 -0.036201
v -0.562276 -0.908847 -0.036201
v -0.852343 -0.644401 -0.036200
v -1.027290 -0.293029 -0.036199
v -1.063488 0.097806 -0.036198
v -0.956058 0.475321 -0.036197
v -0.719517 0.788532 -0.036197
v -0.385808 0.995145 -0.036196
v -0.268778 0.693796 -0.288677
v 0.000000 0.744039 -0.288677
v -0.501256 0.549852 -0.288677
v -0.666036 0.331648 -0.288677
v -0.740865 0.068652 -0.288677
v -0.715636 -0.203616 -0.288677
v -0.593756 -0.448383 -0.288677
v -0.391686 -0.632595 -0.288677
v -0.136717 -0.731371 -0.288677
v 0.136717 -0.731371 -0.288677
v 0.391686 -0.632595 -0.288677
v 0.593756 -0.448383 -0.288677
v 0.715636 -0.203615 -0.288677
v 0.740865 0.068652 -0.288677
v 0.666036 0.331648 -0.288677
v 0.501256 0.549852 -0.288677
v 0.268778 0.693796 -0.288677
v -0.291166 0.751601 -0.225964
v 0.000000 0.806027 -0.225964
v -0.543007 0.595668 -0.225963
v -0.721515 0.359290 -0.225962
v -0.802581 0.074387 -0.225962
v -0.775254 -0.220561 -0.225961
v -0.643223 -0.485722 -0.225960
v -0.424319 -0.685283 -0.225959
v -0.148107 -0.792289 -0.225959
v 0.148108 -0.792289 -0.225959
v 0.424320 -0.685283 -0.225959
v 0.643223 -0.485722 -0.225960
v 0.775254 -0.220561 -0.225960
v 0.802581 0.074387 -0.225962
v 0.721515 0.359290 -0.225963
v 0.543007 0.595668 -0.225963
v 0.291165 0.751601 -0.225964
vt 0.287341 0.295474
vt 0.287325 0.449256
vt 0.231792 0.438849
vt 0.183753 0.409116
vt 0.149700 0.364032
vt 0.134234 0.309686
vt 0.139445 0.253418
vt 0.164632 0.202829
vt 0.206395 0.164751
vt 0.259094 0.144331
vt 0.315604 0.144372
vt 0.368300 0.164775
vt 0.410060 0.202848
vt 0.435242 0.253437
vt 0.440447 0.309706
vt 0.424975 0.364055
vt 0.390918 0.409148
vt 0.342878 0.438908
vt 0.287324 0.482727
vt 0.219748 0.470049
vt 0.161265 0.433892
vt 0.119806 0.379017
vt 0.100967 0.312865
vt 0.107299 0.244369
vt 0.137949 0.182781
vt 0.188783 0.136420
vt 0.252938 0.111521
vt 0.321765 0.111546
vt 0.385915 0.136438
vt 0.436745 0.182800
vt 0.467389 0.244390
vt 0.473713 0.312887
vt 0.454867 0.379040
vt 0.413403 0.433914
vt 0.354916 0.470083
vt 0.702043 0.469858
vt 0.702027 0.492947
vt 0.628572 0.506767
vt 0.620191 0.485199
vt 0.564994 0.546039
vt 0.549402 0.529012
vt 0.519941 0.605683
vt 0.499222 0.595441
vt 0.499470 0.677593
vt 0.476435 0.675528
vt 0.506351 0.752047
vt 0.484112 0.758443
vt 0.539679 0.818984
vt 0.521229 0.832987
vt 0.594941 0.869380
vt 0.582762 0.889122
vt 0.664665 0.896470
vt 0.660431 0.919172
vt 0.739464 0.896380
vt 0.743677 0.919141
vt 0.809184 0.869373
vt 0.821319 0.889099
vt 0.864437 0.818981
vt 0.882867 0.833010
vt 0.897740 0.752019
vt 0.919978 0.758443
vt 0.904621 0.677566
vt 0.927653 0.675521
vt 0.884134 0.605679
vt 0.904854 0.595456
vt 0.839064 0.546054
vt 0.854684 0.529032
vt 0.775511 0.506709
vt 0.783910 0.485172
vt 0.702032 0.450280
vt 0.791010 0.466934
vt 0.613069 0.466930
vt 0.536163 0.514575
vt 0.481656 0.586769
vt 0.456914 0.673794
vt 0.465271 0.763877
vt 0.505613 0.844853
vt 0.572478 0.905803
vt 0.656838 0.938489
vt 0.747266 0.938434
vt 0.831599 0.905823
vt 0.898477 0.844896
vt 0.938811 0.763889
vt 0.947177 0.673798
vt 0.922424 0.586795
vt 0.867917 0.514612
vt 0.372190 0.514477
vt 0.383004 0.542227
vt 0.287344 0.560111
vt 0.287347 0.530351
vt 0.445576 0.469040
vt 0.465745 0.490996
vt 0.497586 0.400156
vt 0.524388 0.413332
vt 0.521197 0.317137
vt 0.551015 0.319730
vt 0.513224 0.231198
vt 0.542030 0.222832
vt 0.474746 0.153944
vt 0.498650 0.135724
vt 0.410962 0.095807
vt 0.426734 0.070168
vt 0.330488 0.064631
vt 0.335995 0.035011
vt 0.244191 0.064651
vt 0.238686 0.035029
vt 0.163715 0.095809
vt 0.147947 0.070170
vt 0.099933 0.153947
vt 0.076031 0.135725
vt 0.061457 0.231202
vt 0.032651 0.222833
vt 0.053486 0.317141
vt 0.023667 0.319732
vt 0.077099 0.400159
vt 0.050294 0.413334
vt 0.129110 0.469043
vt 0.108938 0.490998
vt 0.202492 0.514501
vt 0.191677 0.542242
vt 0.287335 0.506344
vt 0.211157 0.492120
vt 0.145283 0.451301
vt 0.098592 0.389462
vt 0.077392 0.314933
vt 0.084548 0.237778
vt 0.119092 0.168419
vt 0.176358 0.116222
vt 0.248613 0.088258
vt 0.326093 0.088232
vt 0.398344 0.116236
vt 0.455604 0.168440
vt 0.490140 0.237803
vt 0.497287 0.314959
vt 0.476079 0.389486
vt 0.429381 0.451320
vt 0.363497 0.492097
vt 0.287340 0.511549
vt 0.365384 0.496948
vt 0.370384 0.509829
vt 0.287347 0.525365
vt 0.204299 0.509855
vt 0.209281 0.496973
vt 0.132478 0.465365
vt 0.141780 0.455150
vt 0.081570 0.397949
vt 0.093933 0.391785
vt 0.058455 0.316697
vt 0.072210 0.315415
vt 0.066253 0.232582
vt 0.079541 0.236356
vt 0.103909 0.156966
vt 0.114936 0.165284
vt 0.166336 0.100059
vt 0.173614 0.111798
vt 0.245106 0.069561
vt 0.247651 0.083140
vt 0.329573 0.069540
vt 0.327043 0.083114
vt 0.408341 0.100057
vt 0.401078 0.111805
vt 0.470770 0.156963
vt 0.459753 0.165295
vt 0.508428 0.232579
vt 0.495144 0.236369
vt 0.516227 0.316693
vt 0.502471 0.315429
vt 0.493114 0.397946
vt 0.480743 0.391798
vt 0.442209 0.465362
vt 0.432894 0.455160
vt 0.287345 0.564427
vt 0.384569 0.546250
vt 0.386207 0.550464
vt 0.287349 0.568949
vt 0.468662 0.494179
vt 0.471712 0.497517
vt 0.528261 0.415245
vt 0.532310 0.417255
vt 0.555318 0.320113
vt 0.559821 0.320525
vt 0.546183 0.221634
vt 0.550530 0.220391
vt 0.502092 0.133108
vt 0.505697 0.130380
vt 0.429003 0.066487
vt 0.431379 0.062641
vt 0.336786 0.030759
vt 0.337612 0.026315
vt 0.237894 0.030777
vt 0.237059 0.026333
vt 0.145677 0.066489
vt 0.143293 0.062647
vt 0.072588 0.133110
vt 0.068977 0.130389
vt 0.028498 0.221637
vt 0.024149 0.220403
vt 0.019364 0.320115
vt 0.014863 0.320537
vt 0.046422 0.415247
vt 0.042377 0.417266
vt 0.106022 0.494182
vt 0.102979 0.497525
vt 0.190113 0.546265
vt 0.188484 0.550482
vt 0.287359 0.572245
vt 0.387400 0.553536
vt 0.473931 0.499955
vt 0.535260 0.418730
vt 0.563106 0.320836
vt 0.553707 0.219494
vt 0.508335 0.128392
vt 0.433118 0.059831
vt 0.338213 0.023065
vt 0.236439 0.023087
vt 0.141539 0.059847
vt 0.066329 0.128415
vt 0.020966 0.219523
vt 0.011579 0.320865
vt 0.039435 0.418756
vt 0.100772 0.499975
vt 0.187307 0.553561
vt 0.641529 0.540253
vt 0.702071 0.528885
vt 0.702051 0.696516
vt 0.589137 0.572640
vt 0.552012 0.621780
vt 0.535153 0.681023
vt 0.540833 0.742359
vt 0.568290 0.797502
vt 0.613810 0.839011
vt 0.671238 0.861286
vt 0.732821 0.861199
vt 0.790264 0.839006
vt 0.835793 0.797526
vt 0.863250 0.742385
vt 0.868940 0.681052
vt 0.852087 0.621817
vt 0.814977 0.572658
vt 0.762632 0.540179
vt 0.633883 0.520610
vt 0.702022 0.507766
vt 0.574913 0.557049
vt 0.533119 0.612372
vt 0.514143 0.679075
vt 0.520542 0.748133
vt 0.551459 0.810216
vt 0.602706 0.856969
vt 0.667397 0.882025
vt 0.736729 0.881887
vt 0.801396 0.856908
vt 0.852661 0.810202
vt 0.883561 0.748100
vt 0.889942 0.679043
vt 0.870947 0.612361
vt 0.829166 0.557030
vt 0.770231 0.520443
vt 0.602992 0.441080
vt 0.702023 0.422552
vt 0.517382 0.494110
vt 0.456704 0.574483
vt 0.429163 0.671363
vt 0.438470 0.771643
vt 0.483377 0.861778
vt 0.557803 0.929627
vt 0.651720 0.966015
vt 0.752379 0.965956
vt 0.846246 0.929658
vt 0.920702 0.861840
vt 0.965610 0.771668
vt 0.974928 0.671380
vt 0.947379 0.574520
vt 0.886709 0.494163
vt 0.801096 0.441065
s 1
g LOW_Plate_ZBrushPolyMesh3D
usemtl LOW_Plate_defaultMat
f 1/1 2/2 3/3
f 1/1 3/3 6/4
f 1/1 6/4 8/5
f 1/1 8/5 10/6
f 1/1 10/6 12/7
f 1/1 12/7 14/8
f 1/1 14/8 16/9
f 1/1 16/9 18/10
f 1/1 18/10 20/11
f 1/1 20/11 22/12
f 1/1 22/12 24/13
f 1/1 24/13 26/14
f 1/1 26/14 28/15
f 1/1 28/15 30/16
f 1/1 30/16 32/17
f 1/1 32/17 34/18
f 1/1 34/18 2/2
f 3/3 2/2 5/19 4/20
f 4/20 7/21 6/4 3/3
f 7/21 9/22 8/5 6/4
f 9/22 11/23 10/6 8/5
f 11/23 13/24 12/7 10/6
f 13/24 15/25 14/8 12/7
f 15/25 17/26 16/9 14/8
f 17/26 19/27 18/10 16/9
f 19/27 21/28 20/11 18/10
f 21/28 23/29 22/12 20/11
f 23/29 25/30 24/13 22/12
f 25/30 27/31 26/14 24/13
f 27/31 29/32 28/15 26/14
f 29/32 31/33 30/16 28/15
f 31/33 33/34 32/17 30/16
f 33/34 35/35 34/18 32/17
f 2/2 34/18 35/35 5/19
f 71/36 38/37 37/38 72/39
f 72/39 37/38 39/40 73/41
f 73/41 39/40 40/42 74/43
f 74/43 40/42 41/44 75/45
f 75/45 41/44 42/46 76/47
f 76/47 42/46 43/48 77/49
f 77/49 43/48 44/50 78/51
f 78/51 44/50 45/52 79/53
f 79/53 45/52 46/54 80/55
f 80/55 46/54 47/56 81/57
f 81/57 47/56 48/58 82/59
f 82/59 48/58 49/60 83/61
f 83/61 49/60 50/62 84/63
f 84/63 50/62 51/64 85/65
f 85/65 51/64 52/66 86/67
f 86/67 52/66 53/68 87/69
f 87/69 53/68 38/37 71/36
f 71/36 55/70 54/71 87/69
f 55/70 71/36 72/39 70/72
f 70/72 72/39 73/41 69/73
f 69/73 73/41 74/43 68/74
f 68/74 74/43 75/45 67/75
f 67/75 75/45 76/47 66/76
f 66/76 76/47 77/49 65/77
f 65/77 77/49 78/51 64/78
f 64/78 78/51 79/53 63/79
f 63/79 79/53 80/55 62/80
f 62/80 80/55 81/57 61/81
f 61/81 81/57 82/59 60/82
f 60/82 82/59 83/61 59/83
f 59/83 83/61 84/63 58/84
f 58/84 84/63 85/65 57/85
f 57/85 85/65 86/67 56/86
f 56/86 86/67 87/69 54/71
f 88/87 89/88 90/89 91/90
f 92/91 93/92 89/88 88/87
f 94/93 95/94 93/92 92/91
f 96/95 97/96 95/94 94/93
f 98/97 99/98 97/96 96/95
f 100/99 101/100 99/98 98/97
f 102/101 103/102 101/100 100/99
f 104/103 105/104 103/102 102/101
f 106/105 107/106 105/104 104/103
f 108/107 109/108 107/106 106/105
f 110/109 111/110 109/108 108/107
f 112/111 113/112 111/110 110/109
f 114/113 115/114 113/112 112/111
f 116/115 117/116 115/114 114/113
f 118/117 119/118 117/116 116/115
f 120/119 121/120 119/118 118/117
f 91/90 90/89 121/120 120/119
f 122/121 123/122 4/20 5/19
f 123/122 124/123 7/21 4/20
f 124/123 125/124 9/22 7/21
f 125/124 126/125 11/23 9/22
f 126/125 127/126 13/24 11/23
f 127/126 128/127 15/25 13/24
f 128/127 129/128 17/26 15/25
f 129/128 130/129 19/27 17/26
f 130/129 131/130 21/28 19/27
f 131/130 132/131 23/29 21/28
f 132/131 133/132 25/30 23/29
f 133/132 134/133 27/31 25/30
f 134/133 135/134 29/32 27/31
f 135/134 136/135 31/33 29/32
f 136/135 137/136 33/34 31/33
f 137/136 138/137 35/35 33/34
f 138/137 122/121 5/19 35/35
f 139/138 140/139 141/140 142/141
f 142/141 143/142 144/143 139/138
f 143/142 145/144 146/145 144/143
f 145/144 147/146 148/147 146/145
f 147/146 149/148 150/149 148/147
f 149/148 151/150 152/151 150/149
f 151/150 153/152 154/153 152/151
f 153/152 155/154 156/155 154/153
f 155/154 157/156 158/157 156/155
f 157/156 159/158 160/159 158/157
f 159/158 161/160 162/161 160/159
f 161/160 163/162 164/163 162/161
f 163/162 165/164 166/165 164/163
f 165/164 167/166 168/167 166/165
f 167/166 169/168 170/169 168/167
f 169/168 171/170 172/171 170/169
f 171/170 141/140 140/139 172/171
f 173/172 174/173 175/174 176/175
f 174/173 177/176 178/177 175/174
f 177/176 179/178 180/179 178/177
f 179/178 181/180 182/181 180/179
f 181/180 183/182 184/183 182/181
f 183/182 185/184 186/185 184/183
f 185/184 187/186 188/187 186/185
f 187/186 189/188 190/189 188/187
f 189/188 191/190 192/191 190/189
f 191/190 193/192 194/193 192/191
f 193/192 195/194 196/195 194/193
f 195/194 197/196 198/197 196/195
f 197/196 199/198 200/199 198/197
f 199/198 201/200 202/201 200/199
f 201/200 203/202 204/203 202/201
f 203/202 205/204 206/205 204/203
f 205/204 173/172 176/175 206/205
f 54/71 55/70 207/259 208/274
f 56/86 54/71 208/274 209/273
f 57/85 56/86 209/273 210/272
f 58/84 57/85 210/272 211/271
f 59/83 58/84 211/271 212/270
f 60/82 59/83 212/270 213/269
f 61/81 60/82 213/269 214/268
f 62/80 61/81 214/268 215/267
f 63/79 62/80 215/267 216/266
f 64/78 63/79 216/266 217/265
f 65/77 64/78 217/265 218/264
f 66/76 65/77 218/264 219/263
f 67/75 66/76 219/263 220/262
f 68/74 67/75 220/262 221/261
f 69/73 68/74 221/261 222/260
f 70/72 69/73 222/260 223/258
f 55/70 70/72 223/258 207/259
f 174/173 173/172 90/89 89/88
f 141/140 171/170 92/91 88/87
f 171/170 169/168 94/93 92/91
f 169/168 167/166 96/95 94/93
f 167/166 165/164 98/97 96/95
f 165/164 163/162 100/99 98/97
f 163/162 161/160 102/101 100/99
f 161/160 159/158 104/103 102/101
f 159/158 157/156 106/105 104/103
f 157/156 155/154 108/107 106/105
f 155/154 153/152 110/109 108/107
f 153/152 151/150 112/111 110/109
f 151/150 149/148 114/113 112/111
f 149/148 147/146 116/115 114/113
f 147/146 145/144 118/117 116/115
f 145/144 143/142 120/119 118/117
f 173/172 205/204 121/120 90/89
f 139/138 144/143 123/122 122/121
f 144/143 146/145 124/123 123/122
f 146/145 148/147 125/124 124/123
f 148/147 150/149 126/125 125/124
f 150/149 152/151 127/126 126/125
f 152/151 154/153 128/127 127/126
f 154/153 156/155 129/128 128/127
f 156/155 158/157 130/129 129/128
f 158/157 160/159 131/130 130/129
f 160/159 162/161 132/131 131/130
f 162/161 164/163 133/132 132/131
f 164/163 166/165 134/133 133/132
f 166/165 168/167 135/134 134/133
f 168/167 170/169 136/135 135/134
f 170/169 172/171 137/136 136/135
f 172/171 140/139 138/137 137/136
f 88/87 91/90 142/141 141/140
f 122/121 138/137 140/139 139/138
f 91/90 120/119 143/142 142/141
f 208/207 207/206 176/175 175/174
f 89/88 93/92 177/176 174/173
f 93/92 95/94 179/178 177/176
f 95/94 97/96 181/180 179/178
f 97/96 99/98 183/182 181/180
f 99/98 101/100 185/184 183/182
f 101/100 103/102 187/186 185/184
f 103/102 105/104 189/188 187/186
f 105/104 107/106 191/190 189/188
f 107/106 109/108 193/192 191/190
f 109/108 111/110 195/194 193/192
f 111/110 113/112 197/196 195/194
f 113/112 115/114 199/198 197/196
f 115/114 117/116 201/200 199/198
f 117/116 119/118 203/202 201/200
f 119/118 121/120 205/204 203/202
f 207/206 223/222 206/205 176/175
f 175/174 178/177 209/208 208/207
f 178/177 180/179 210/209 209/208
f 180/179 182/181 211/210 210/209
f 182/181 184/183 212/211 211/210
f 184/183 186/185 213/212 212/211
f 186/185 188/187 214/213 213/212
f 188/187 190/189 215/214 214/213
f 190/189 192/191 216/215 215/214
f 192/191 194/193 217/216 216/215
f 194/193 196/195 218/217 217/216
f 196/195 198/197 219/218 218/217
f 198/197 200/199 220/219 219/218
f 200/199 202/201 221/220 220/219
f 202/201 204/203 222/221 221/220
f 204/203 206/205 223/222 222/221
f 224/223 225/224 36/225
f 226/226 224/223 36/225
f 227/227 226/226 36/225
f 228/228 227/227 36/225
f 229/229 228/228 36/225
f 230/230 229/229 36/225
f 231/231 230/230 36/225
f 232/232 231/231 36/225
f 233/233 232/232 36/225
f 234/234 233/233 36/225
f 235/235 234/234 36/225
f 236/236 235/235 36/225
f 237/237 236/236 36/225
f 238/238 237/237 36/225
f 239/239 238/238 36/225
f 240/240 239/239 36/225
f 225/224 240/240 36/225
f 241/241 37/38 38/37 242/242
f 37/38 241/241 243/243 39/40
f 39/40 243/243 244/244 40/42
f 40/42 244/244 245/245 41/44
f 41/44 245/245 246/246 42/46
f 42/46 246/246 247/247 43/48
f 43/48 247/247 248/248 44/50
f 44/50 248/248 249/249 45/52
f 45/52 249/249 250/250 46/54
f 46/54 250/250 251/251 47/56
f 47/56 251/251 252/252 48/58
f 48/58 252/252 253/253 49/60
f 49/60 253/253 254/254 50/62
f 50/62 254/254 255/255 51/64
f 51/64 255/255 256/256 52/66
f 52/66 256/256 257/257 53/68
f 242/242 38/37 53/68 257/257
f 242/242 257/257 240/240 225/224
f 225/224 224/223 241/241 242/242
f 224/223 226/226 243/243 241/241
f 226/226 227/227 244/244 243/243
f 227/227 228/228 245/245 244/244
f 228/228 229/229 246/246 245/245
f 229/229 230/230 247/247 246/246
f 230/230 231/231 248/248 247/247
f 231/231 232/232 249/249 248/248
f 232/232 233/233 250/250 249/249
f 233/233 234/234 251/251 250/250
f 234/234 235/235 252/252 251/251
f 235/235 236/236 253/253 252/252
f 236/236 237/237 254/254 253/253
f 237/237 238/238 255/255 254/254
f 238/238 239/239 256/256 255/255
f 239/239 240/240 257/257 256/256
